R Language Exam – KV
…
    # pārsaucam tabulas kolonu
  rename(
    akcija = stock_symbol,
    datums = date,
    atversanas_cena = open,
    augstaka_cena = high,
    zemaka_cena = low,
    slegsanas_cena = close,
    koregeta_slegsanas_cena = adj_close,
    akciju_skaits = volume
  ) %>%
  select(akcija, datums, atversanas_cena, augstaka_cena, zemaka_cena, slegsanas_cena, akciju_skaits, company, dienas_atdeve)
data

# A tibble: 45,088 × 9
   akcija datums     atversanas_cena augstaka_cena zemaka_cena slegsanas_cena
   <fct>  <date>               <dbl>         <dbl>       <dbl>          <dbl>
 1 AAPL   2010-01-04            7.62          7.66        7.58           7.64
 2 AAPL   2010-01-05            7.66          7.70        7.62           7.66
 3 AAPL   2010-01-06            7.66          7.69        7.53           7.53
 4 AAPL   2010-01-07            7.56          7.57        7.47           7.52
 5 AAPL   2010-01-08            7.51          7.57        7.47           7.57
 6 AAPL   2010-01-11            7.6           7.61        7.44           7.50
 7 AAPL   2010-01-12            7.47          7.49        7.37           7.42
 8 AAPL   2010-01-13            7.42          7.53        7.29           7.52
 9 AAPL   2010-01-14            7.50          7.52        7.46           7.48
10 AAPL   2010-01-15            7.53          7.56        7.35           7.35
# ℹ 45,078 more rows
# ℹ 3 more variables: akciju_skaits <dbl>, company <fct>, dienas_atdeve <dbl>
…
